Place,Name,Sex,BirthDate,Age,Equipment,Division,BodyweightKg,WeightClassKg,Squat1Kg,Squat2Kg,Squat3Kg,Best3SquatKg,Bench1Kg,Bench2Kg,Bench3Kg,Best3BenchKg,Deadlift1Kg,Deadlift2Kg,Deadlift3Kg,Best3DeadliftKg,TotalKg,Event
1,Yulie Amer,F,2001-07-18,22,Raw,J,50.6,52,122.5,130,140,140,55,60,65,65,130,140,-148.5,140,345,SBD
DQ,Rochel Koleditsky,F,2000-10-29,22,Raw,J,51.7,52,-100,-100,-100,,50,55,62.5,62.5,-120,120,130,130,,SBD
1,Noam Landes,F,2003-02-19,20,Raw,J,67,67.5,112.5,-117.5,-120,112.5,-60,60,-65,60,140,150,-160,150,322.5,SBD
2,Hadar Topaz,F,2001-02-04,22,Raw,J,64.4,67.5,75,82.5,90,90,45,50,-52.5,50,100,107.5,-110,107.5,247.5,SBD
DQ,Sapphire Pozailov,F,2002-05-06,21,Raw,J,73.9,75,-135,-137.5,-137.5,,65,-67.5,67.5,67.5,140,145,150,150,,SBD
1,Veronika Schastlivaya,F,1995-11-28,27,Raw,O,49.6,52,-110,110,-112.5,110,60,65,-67.5,65,115,120,,120,295,SBD
1,Valeria Merzlyakova,F,1993-07-27,30,Raw,O,55.5,56,107.5,112.5,120,120,60,65,67.5,67.5,150,161,-165,161,348.5,SBD
2,Chen Astrogano,F,1995-06-29,28,Raw,O,54.9,56,105,112.5,117.5,117.5,65,70,-73,70,140,150,-152.5,150,337.5,SBD
1,Jessica Bricker,F,1996-10-11,26,Raw,O,58.7,60,-72.5,87.5,95,95,45,-52.5,52.5,52.5,85,105,-110,105,252.5,SBD
2,Linoy Ben Ezra,F,1992-10-30,30,Raw,O,57.2,60,-67.5,67.5,-75,67.5,45,-47.5,-47.5,45,102.5,110,-117.5,110,222.5,SBD
1,Valentina Galperin,F,1995-02-25,28,Raw,O,65.6,67.5,127.5,132.5,137.5,137.5,70,77.5,82.5,82.5,150,155,160,160,380,SBD
2,Shevi Zeff,F,1994-04-07,29,Raw,O,62.3,67.5,-90,95,105,105,60,70,-75,70,105,115,-120,115,290,SBD
3,Nitzan Nesher,F,1997-11-13,25,Raw,O,65.6,67.5,87.5,90,95,95,42.5,-47.5,47.5,47.5,107.5,115,-122.5,115,257.5,SBD
1,Alina Lior Susan Schittenhelm,F,1993-10-28,29,Raw,O,69.3,75,125,-135,140,140,90,95,100.5,100.5,145,155,165,165,405.5,SBD
1,Ayha Odeh,F,1995-10-07,27,Raw,O,88.3,90,145,-150,150,150,77.5,81,-85,81,170,177.5,-180,177.5,408.5,SBD
2,Ella Kitroser,F,1987-01-09,36,Raw,O,86,90,-120,125,-130,125,60,-62.5,-62.5,60,150,160,-170,160,345,SBD
1,Noya Cohen,F,2007-12-11,15,Raw,T1,52,52,100,102.5,105.5,105.5,47.5,50,-52.5,50,105,-110,-110,105,260.5,SBD
1,Ori Shabo,F,2007-05-09,16,Raw,T2,54.7,56,85,-87.5,-87.5,85,50,-55,-55,50,120,-127.5,-127.5,120,255,SBD
2,Shira Peleg,F,2007-09-07,15,Raw,T1,52.7,56,70,72.5,-80,72.5,53,60,-65,60,105,112.5,120,120,252.5,SBD
1,Talya Bitton,F,2007-10-21,15,Raw,T1,59.7,60,-100,100,-112.5,100,60,65,-67.5,65,100,112.5,-115,112.5,277.5,SBD
1,Zohar Shaar,F,2008-01-23,15,Raw,T1,66.5,67.5,-130,132.5,140,140,70,75.5,-80,75.5,115,125,140,140,355.5,SBD
2,Noga Golomb,F,2007-03-18,16,Raw,T2,63.3,67.5,97.5,105,112.5,112.5,52.5,-57.5,-60,52.5,115,127.5,132.5,132.5,297.5,SBD
3,Keynar Vaknin,F,2007-12-23,15,Raw,T1,65.9,67.5,-75,75,80,80,32.5,35,37.5,37.5,80,90,100,100,217.5,SBD
1,Romi Hamami,F,2008-11-12,14,Raw,T1,69,75,122.5,-132.5,-135,122.5,62.5,65,67.5,67.5,145.5,-160,-160,145.5,335.5,SBD
1,Liri Ben Harosh,F,2009-02-22,14,Raw,T1,77.8,82.5,100,105,-110,105,42.5,-47.5,47.5,47.5,120,130,-141,130,282.5,SBD
1,Yael Livyatan,F,2006-01-13,17,Raw,T2,50.8,52,100,-107.5,107.5,107.5,60,63.5,65.5,65.5,130,137.5,138.5,138.5,311.5,SBD
1,Leah Glickman,F,2005-08-31,17,Raw,T2,59.1,60,115,122.5,-125,122.5,65.5,70,-72.5,70,160,170,175.5,175.5,368,SBD
2,Noa Rahamim,F,2003-12-28,19,Raw,T3,59.8,60,80,85,90,90,52.5,57.5,-60,57.5,110,120,-127.5,120,267.5,SBD
1,Gaya Elimor,F,2005-11-23,17,Raw,T2,62.6,67.5,75,80,85,85,-57.5,57.5,-60,57.5,105,115,-120,115,257.5,SBD
1,Talia Ben Abu,F,2006-06-15,17,Raw,T2,70.1,75,100,110,-120,110,67.5,72.5,75,75,135,147.5,-157.5,147.5,332.5,SBD
2,Shani Schechter,F,2006-01-03,17,Raw,T2,71.3,75,105,112.5,122.5,122.5,62.5,67.5,72.5,72.5,125,137.5,-145,137.5,332.5,SBD
1,Shira Frish,F,2006-03-29,17,Raw,T2,77.6,82.5,110,-117.5,-117.5,110,67.5,-71,-71,67.5,150,157.5,-163,157.5,335,SBD
1,Mira Habiballa,F,2004-02-13,19,Raw,T3,97.7,90+,132.5,140,145,145,65,70,-72.5,70,155,162.5,167.5,167.5,382.5,SBD
1,Erica Katzin,F,1994-12-13,28,Raw,O,61.6,67.5,,,,,50,52.5,55,55,110,117.5,125,125,180,BD
1,Naomi Laub,F,2005-12-08,17,Raw,T2,65.8,67.5,,,,,57.5,62.5,67.5,67.5,117.5,127.5,137.5,137.5,205,BD
1,Rom Avitan,M,2002-08-28,20,Raw,J,72.5,75,-180,182.5,,182.5,145,152.5,160,160,220,235,-250,235,577.5,SBD
2,Yam Alon,M,2001-05-28,22,Raw,J,74.4,75,-190,-205,205,205,135,-145,-145,135,220,-245,-250,220,560,SBD
3,Shahar Yona,M,2000-11-21,22,Raw,J,73.9,75,190,-205,-210,190,107.5,115,122.5,122.5,200,-220,230,230,542.5,SBD
4,Roy Yomtovian,M,2003-02-07,20,Raw,J,73.7,75,165,175,182.5,182.5,80,90,92.5,92.5,215,-230,230,230,505,SBD
DQ,Yazeed Drawshy,M,2002-02-22,21,Raw,J,70.8,75,-197.5,-197.5,-200,,150.5,155,-160.5,155,245,257.5,262.5,262.5,,SBD
1,Abdallah Barakat,M,2003-05-21,20,Raw,J,81.7,82.5,-185,185,205,205,-130,130,-145,130,180,200,-215,200,535,SBD
1,Raz Twito,M,2002-01-23,21,Raw,J,82.7,90,200,210,-220,210,132.5,140,150,150,240,255,-272.5,255,615,SBD
2,Gal Avivi,M,1999-09-05,23,Raw,J,89.5,90,180,185,-190,185,135,142.5,147.5,147.5,215,232.5,245,245,577.5,SBD
1,Eliya Ashush,M,2001-03-28,22,Raw,J,98.7,100,210,225,235,235,150,160,-165,160,265,-285,-290,265,660,SBD
2,Roi Mashiach,M,2001-05-14,22,Raw,J,97,100,210,-225,225,225,-150,160,170,170,230,245,255,255,650,SBD
3,Yonatan Matzkin,M,2003-05-17,20,Raw,J,97.3,100,205,217.5,-230,217.5,135,142.5,-150,142.5,245,260,-270,260,620,SBD
4,Elhay Kadosh,M,2002-08-15,20,Raw,J,96.7,100,177.5,187.5,192.5,192.5,-142.5,147.5,152.5,152.5,237.5,250,260,260,605,SBD
5,Daniel Cohen,M,2003-05-31,20,Raw,J,95.3,100,210,220,-230,220,125,132.5,135,135,215,230,245,245,600,SBD
6,Alon Marmelshtein,M,2002-03-11,21,Raw,J,95.7,100,220,-227.5,-230,220,127.5,135,-140,135,210,-225,225,225,580,SBD
7,Yarin Cohen,M,2002-12-16,20,Raw,J,95.2,100,165,175,-180,175,117.5,125,-127.5,125,-215,225,-240,225,525,SBD
1,Alex Lysenko,M,2000-07-04,23,Raw,J,104.4,110,245,255,262.5,262.5,175,-182.5,182.5,182.5,260,-275,-275,260,705,SBD
1,Amit Shraibhand,M,2002-02-20,21,Raw,J,114.4,125,245,-260,270,270,130,145,150,150,-250,260,282.5,282.5,702.5,SBD
1,Damian Munafo,M,1975-01-16,48,Raw,M2,98.8,100,185,200,-205,200,125,-140,-140,125,230,240,-245,240,565,SBD
1,Mishel Coria,M,1999-03-07,24,Raw,O,67.1,67.5,125,135,140,140,65,70,72.5,72.5,147.5,155,160,160,372.5,SBD
1,Ofek Brener,M,1996-12-13,26,Raw,O,74.9,75,152.5,162.5,-172.5,162.5,115,122.5,130,130,200,220,230,230,522.5,SBD
1,Oleksandr Aleksieienko,M,1990-03-31,33,Raw,O,81.9,82.5,247.5,257.5,-262.5,257.5,155,-160,-160,155,280,292.5,-300.5,292.5,705,SBD
2,Avia Asael,M,1995-06-10,28,Raw,O,80.5,82.5,207.5,-220,225,225,142.5,152.5,157.5,157.5,242.5,267.5,-270,267.5,650,SBD
3,Daniel Kugman,M,1996-07-21,27,Raw,O,81.8,82.5,167.5,175,180,180,127.5,135,-140,135,222.5,232.5,240,240,555,SBD
4,Sergey Mostafin,M,1997-04-12,26,Raw,O,80.1,82.5,140,145,150,150,120,-130,,120,170,180,185,185,455,SBD
1,David Samoylov,M,1999-03-20,24,Raw,O,88.8,90,230,240,-251,240,157.5,165,-171,165,245,255,265,265,670,SBD
2,Tal Lempert,M,1998-03-07,25,Raw,O,89.1,90,237.5,250.5,-258,250.5,157.5,165,-171,165,230,245,252.5,252.5,668,SBD
3,Alon Klirs,M,1999-01-30,24,Raw,O,88.1,90,192.5,205,210,210,135,145,147.5,147.5,-225,-225,225,225,582.5,SBD
4,Osama Hidmi,M,1998-07-01,25,Raw,O,87.9,90,-175,180,190,190,120,130,140,140,195,210,220,220,550,SBD
5,Eyal Goldfarb,M,1994-10-16,28,Raw,O,88.4,90,170,-180,180,180,115,-120,,115,205,215,225,225,520,SBD
6,Alan Halabi,M,1994-09-02,28,Raw,O,83.7,90,160,170,175,175,107.5,115,120,120,190,202.5,210,210,505,SBD
7,Gal Eilon,M,1995-12-01,27,Raw,O,89.7,90,140,152.5,-160,152.5,115,125,-127.5,125,180,195,207.5,207.5,485,SBD
DQ,Gal Osiroff,M,1987-07-09,36,Raw,O,87.4,90,-200,-200,-200,,112.5,120,125,125,210,230,-250,230,,SBD
1,Muhammed Deeb,M,1994-05-16,29,Raw,O,100,100,245,260,265,265,150,157.5,162.5,162.5,290,315,-326.5,315,742.5,SBD
2,Eytan Caspy,M,1985-09-11,37,Raw,O,98.5,100,230,237.5,242.5,242.5,140,147.5,155,155,270,-277.5,-277.5,270,667.5,SBD
3,Gilad Gorbilev,M,1998-11-12,24,Raw,O,94.4,100,150,160,172.5,172.5,102.5,110,117.5,117.5,182.5,195,202.5,202.5,492.5,SBD
1,Roman Zakharov,M,1987-05-12,36,Raw,O,107.3,110,190,205,212.5,212.5,140,147.5,-150,147.5,270,285,-302.5,285,645,SBD
1,Alex Efimov,M,1991-03-10,32,Raw,O,124.6,125,-260,270,275,275,175,185,190,190,250,270,-275,270,735,SBD
2,Shaked Asulin,M,1997-01-23,26,Raw,O,116.7,125,170,182.5,190,190,-165,165,-175,165,190,205,220,220,575,SBD
DQ,David Sion,M,1995-11-15,27,Raw,O,114.5,125,-210,-215,215,215,150,-160,-160,150,-250,-260,-260,,,SBD
1,Yuval Ventura,M,2006-09-21,16,Raw,T2,52.2,56,117.5,-122.5,122.5,122.5,-85,90,92.5,92.5,132.5,140,-150,140,355,SBD
1,Idan Haim,M,2007-06-07,16,Raw,T2,58.9,60,150.5,157.5,162.5,162.5,87.5,95,-101,95,177.5,185,193,193,450.5,SBD
2,Gal Tuvya,M,2007-01-15,16,Raw,T2,59.9,60,100,-107.5,-112.5,100,80,87.5,100.5,100.5,125,135,-145,135,335.5,SBD
1,Neoray Peretz,M,2007-05-18,16,Raw,T2,66.9,67.5,160,174,180,180,100,110,-112.5,110,195,207.5,-212.5,207.5,497.5,SBD
2,Yanai Azran,M,2008-09-14,14,Raw,T1,64.4,67.5,-135,145,155,155,107.5,-115,115,115,200,217,226,226,496,SBD
3,Noam Hoota,M,2008-01-17,15,Raw,T1,65.4,67.5,-137.5,-142.5,145,145,95,105,110,110,205,218,-226,218,473,SBD
4,Maor Elboim,M,1975-02-23,48,Raw,M2,66.9,67.5,155,170,-174.5,170,-105,110,-117.5,110,165,172.5,182.5,182.5,462.5,SBD
5,Oriya Perets,M,2006-12-27,16,Raw,T2,66.9,67.5,145,160,-170,160,92.5,-100,100,100,180,192.5,200,200,460,SBD
6,Yarden Megged,M,2007-03-29,16,Raw,T2,65.8,67.5,-115,-115,115,115,100,-110,-115,100,185,195,-205,195,410,SBD
7,Yair Aharoni,M,2007-08-05,15,Raw,T1,66.7,67.5,125,135,145,145,-67.5,70,80,80,170,180,-190,180,405,SBD
1,Ilian Zlotnikov,M,2007-08-23,15,Raw,T1,73.2,75,175,185.5,192.5,192.5,125,132.5,138,138,210,225,241,241,571.5,SBD
2,Raz Moskovitch,M,2007-12-14,15,Raw,T1,73.6,75,-175,185,-196.5,185,-90,95,102.5,102.5,215,232.5,-250,232.5,520,SBD
3,Lior Liberman,M,2008-08-05,14,Raw,T1,74.7,75,-170,177.5,185,185,105,-110,-110,105,195,210,-222.5,210,500,SBD
4,Alon Avioz,M,2006-10-12,16,Raw,T2,73,75,160,170,177.5,177.5,92.5,-95,-95,92.5,-200,210,222.5,222.5,492.5,SBD
5,Ariel Kandlker,M,2007-09-07,15,Raw,T1,74.9,75,150,-160,-160,150,100,-107.5,107.5,107.5,-225,230,-235,230,487.5,SBD
6,Kevin Reubens,M,2006-08-19,16,Raw,T2,74.7,75,-155,-160,160,160,90,-97.5,-97.5,90,190,200,212.5,212.5,462.5,SBD
7,Remi Jabaly,M,2007-01-16,16,Raw,T2,74.1,75,-162.5,170,-180,170,92.5,97.5,-105,97.5,160,175,185,185,452.5,SBD
8,Omer Oren,M,2006-10-07,16,Raw,T2,74.2,75,150,-155,,150,90,-95,-95,90,200,210,-215,210,450,SBD
9,Noam Cohen,M,2008-01-02,15,Raw,T1,72.9,75,150,-160,-160,150,-100,100,110,110,170,177.5,-180,177.5,437.5,SBD
10,Ori Nemni,M,2008-08-05,14,Raw,T1,70.3,75,-155,160,-172.5,160,90,-97.5,-97.5,90,170,177.5,185,185,435,SBD
DQ,Yuval Chuli,M,2006-10-06,16,Raw,T2,73,75,-170,-177.5,-180,,110,115,-120,115,195,205,210,210,,SBD
DQ,Itay Shvartsman,M,2008-08-02,15,Raw,T1,73.2,75,-140,-152.5,-152.5,,95,-102.5,102.5,102.5,170,185,-192.5,185,,SBD
DQ,Miki Vainer,M,2008-03-21,15,Raw,T1,73.2,75,-150,-160,-160,,102.5,-110,120,120,145,160,170,170,,SBD
DQ,David Daniel Brin,M,2008-08-22,14,Raw,T1,73.9,75,-125,127.5,-132.5,127.5,-67.5,-67.5,,,127.5,135,140,140,,SBD
1,Yarin Goldstein,M,2006-09-20,16,Raw,T2,82.5,82.5,187.5,205,212.5,212.5,147.5,164,167.5,167.5,205,227.5,-237.5,227.5,607.5,SBD
2,Ofek Weisman,M,2006-11-11,16,Raw,T2,80.9,82.5,-190,195,205,205,-110,110,-117.5,110,210,-225,-235.5,210,525,SBD
3,Orya Zafon,M,2006-08-22,16,Raw,T2,81.6,82.5,160,170,175,175,85,92.5,-100,92.5,195,205,215,215,482.5,SBD
DQ,Ariel Leyzerovitch,M,2007-08-07,15,Raw,T1,92.9,100,,,,,,,,,240,-250.5,-250.5,240,,SBD
NS,Shalev Aviv,M,,,Raw,T2,,,,,,,,,,,,,,,,SBD
1,Matan Rozenshtein,M,2005-09-09,17,Raw,T2,55.7,56,-135,135,-140,135,85,-90,-90,85,175,182.5,-190.5,182.5,402.5,SBD
1,Ziv Ambar,M,2004-12-02,18,Raw,T3,59.3,60,130,140,-145,140,85,92.5,-97.5,92.5,-200,206,-215,206,438.5,SBD
1,Alon Kapash,M,2005-03-07,18,Raw,T3,65.7,67.5,162.5,175,182.5,182.5,107.5,115,120,120,192.5,202.5,210,210,512.5,SBD
2,Soom Abu Yechia,M,2004-06-16,19,Raw,T3,66.7,67.5,125,140,-155,140,70,80,-87.5,80,160,180,-192.5,180,400,SBD
DQ,Yuval Ephrath,M,2005-06-29,18,Raw,T3,66.6,67.5,185,197.5,-205,197.5,-140,-140,-140,,240,-247.5,-247.5,240,,SBD
1,Avinoam Sprecher,M,2005-11-02,17,Raw,T2,73.4,75,197.5,-212.5,217.5,217.5,117.5,125,-132.5,125,255,-265,-265,255,597.5,SBD
2,Orr Sela,M,2004-08-27,18,Raw,T3,74.3,75,167.5,177.5,-182.5,177.5,117.5,125,132.5,132.5,240,250,-260,250,560,SBD
3,Shalev Zur,M,2004-12-16,18,Raw,T3,73,75,155,165,-170,165,97.5,102.5,-105,102.5,192.5,205,-212.5,205,472.5,SBD
4,Shailee Alalouf,M,2003-11-18,19,Raw,T3,74.9,75,145,157.5,-160,157.5,90,97.5,-102.5,97.5,190,205,-210,205,460,SBD
5,Daniel Cohen,M,2006-03-26,17,Raw,T2,74.7,75,125,137.5,145,145,87.5,95,-105,95,180,192.5,-200,192.5,432.5,SBD
6,Tomer Gredinger,M,2004-12-24,18,Raw,T3,74.6,75,135,142.5,150,150,97.5,-105,-107.5,97.5,-165,165,175,175,422.5,SBD
DQ,Shaked Karlinski,M,2004-10-11,18,Raw,T3,69.1,75,-125,-130,-135,,95,97.5,100,100,167.5,172.5,-175,172.5,,SBD
DQ,Yehonatan Gabay,M,2004-03-30,19,Raw,T3,72.7,75,-185,-185,-185,,117.5,122.5,130,130,175,185,192.5,192.5,,SBD
DQ,Rami Swedan,M,2004-04-07,19,Raw,T3,73.9,75,190,200,207.5,207.5,-115,-115,115,115,-227.5,-240,-240,,,SBD
DQ,Yosef Cohen,M,2005-02-13,18,Raw,T3,74.6,75,196,-203,205,205,-151,-154,-154,,,,,,,SBD
1,Barak Shpirer,M,2004-07-29,19,Raw,T3,81,82.5,195,207.5,215,215,132.5,142.5,-147.5,142.5,282.5,300.5,308.5,308.5,666,SBD
2,Nerya Asis,M,2004-06-28,19,Raw,T3,79.6,82.5,210,-230,-230,210,135,145,-155,145,230,255,265,265,620,SBD
3,Omer Dekel,M,2006-06-01,17,Raw,T2,80.7,82.5,-155,165,170,170,112.5,-120,-120,112.5,210,215,-220,215,497.5,SBD
4,Noam Shtaynberger,M,2005-05-23,18,Raw,T3,77.1,82.5,140,150,-157.5,150,127.5,135,140,140,170,187.5,-192.5,187.5,477.5,SBD
1,Dvir Cohen,M,2005-06-14,18,Raw,T3,84.3,90,180,195,202.5,202.5,105,112.5,115,115,245,257.5,265,265,582.5,SBD
2,Oria Reichart,M,2005-03-31,18,Raw,T3,89.4,90,175,187.5,192.5,192.5,115,120,127.5,127.5,225,237.5,245,245,565,SBD
3,Noam Marks,M,2004-08-05,18,Raw,T3,89.6,90,-200,200,-210,200,112.5,117.5,-125,117.5,215,227.5,237.5,237.5,555,SBD
4,Tzuf Moshkovitz,M,2005-03-01,18,Raw,T3,85.6,90,-180,180,-192.5,180,130,140,-145,140,190,202.5,210,210,530,SBD
5,Amit Segev,M,2006-01-31,17,Raw,T2,85.9,90,145,160,170,170,100,107.5,112.5,112.5,200,217.5,-225,217.5,500,SBD
6,Yosef Dror,M,2005-09-07,17,Raw,T2,82.7,90,132.5,142.5,-155,142.5,87.5,97.5,-105,97.5,195,212.5,-232.5,212.5,452.5,SBD
1,Noam Dekel,M,2004-05-11,19,Raw,T3,95.5,100,220,235,245,245,145,152.5,157.5,157.5,285,300.5,-309.5,300.5,703,SBD
2,Bar Asulin,M,2006-04-11,17,Raw,T2,99.9,100,177.5,190,195,195,-105,110,115,115,-230,230,-245,230,540,SBD
1,Matan Hezi,M,2006-01-30,17,Raw,T2,102.3,110,-150,150,-160,150,95,-102.5,-102.5,95,180,-192.5,195,195,440,SBD
1,Or Koyfman,M,2003-12-20,19,Raw,T3,124.1,125,250,265,-270,265,170,180,,180,220,230,,230,675,SBD
1,Liel Milhofer,M,2000-11-10,22,Raw,J,75.7,82.5,,,,,110,117.5,122.5,122.5,202.5,212.5,-220,212.5,335,BD
1,Ronen Eliyahu Frank,M,1968-07-20,55,Raw,M4,108.7,110,,,,,-140,155.5,-160,155.5,180,-210,210,210,365.5,BD
1,Itamar Levy,M,2008-08-18,14,Raw,T1,71.4,75,,,,,100,107.5,-110,107.5,175,180,185,185,292.5,BD
1,Ofir Adi,M,1981-03-10,42,Raw,M1,88.7,90,,,,,120,130,140,140,,,,,140,B
1,Lev Trostianvki,M,1951-10-26,71,Raw,M7,72.9,75,,,,,102.5,-110,-110,102.5,,,,,102.5,B
1,Omer Yaakov,M,1988-04-27,35,Raw,O,66.3,67.5,,,,,136,140,-145,140,,,,,140,B
2,Tzviel Yevdaiev,M,1997-08-05,25,Raw,O,65.7,67.5,,,,,122.5,132.5,-140.5,132.5,,,,,132.5,B
1,Pavel Kuks,M,1985-10-05,37,Raw,O,90.2,100,,,,,160,170,175,175,,,,,175,B
2,Amir Varkovitzky,M,1990-08-20,32,Raw,O,92.4,100,,,,,-130,130,-140,130,,,,,130,B
1,Orel Abkyev,M,2007-10-07,15,Raw,T1,73.9,75,,,,,137.5,-141,-141,137.5,,,,,137.5,B
1,Maxim Medvedev,M,2003-12-07,19,Raw,T3,65.7,67.5,,,,,95,-105,-110,95,,,,,95,B
1,Yegor Voloshin,M,2003-12-13,19,Raw,T3,98.3,100,,,,,172.5,180,-182.5,180,,,,,180,B
1,Eden Asraf,M,2005-12-31,17,Raw,T2,133.3,140,,,,,140,147.5,-152.5,147.5,,,,,147.5,B
1,Noam Yaroslavtsev,M,2005-10-05,17,Raw,T2,94.4,100,,,,,,,,,240,-265,-270,240,240,D
